{
    "watch": ["resume.json", "theme/"],
    "ext": "js,json,html,css,hbs,ts",
    "ignore": ["node_modules/*", "dist/*"],
    "delay": "1000",
    "execMap": {
        "js": "node --trace-warnings"
    }
}
